<?xml version="1.0" encoding="UTF-8" standalone="no"?>
<svg xmlns:dc="http://purl.org/dc/elements/1.1/" xmlns:cc="http://creativecommons.org/ns#" xmlns:rdf="http://www.w3.org/1999/02/22-rdf-syntax-ns#" xmlns:svg="http://www.w3.org/2000/svg" xmlns="http://www.w3.org/2000/svg" xmlns:sodipodi="http://sodipodi.sourceforge.net/DTD/sodipodi-0.dtd" xmlns:inkscape="http://www.inkscape.org/namespaces/inkscape" sodipodi:docname="maske_symbol.svg" inkscape:version="1.0 (4035a4fb49, 2020-05-01)" id="svg8" version="1.1" viewBox="0 0 67.76857 67.857567" height="67.857567mm" width="67.76857mm">
  <title id="title2655">Maske Symbol</title>
  <defs id="defs2"/>
  <sodipodi:namedview inkscape:window-maximized="1" inkscape:window-y="-8" inkscape:window-x="-8" inkscape:window-height="1027" inkscape:window-width="1920" fit-margin-bottom="0" fit-margin-right="0" fit-margin-left="0" fit-margin-top="0" showgrid="false" inkscape:document-rotation="0" inkscape:current-layer="layer1" inkscape:document-units="mm" inkscape:cy="149.57375" inkscape:cx="133.59606" inkscape:zoom="0.5" inkscape:pageshadow="2" inkscape:pageopacity="0.0" borderopacity="1.0" bordercolor="#666666" pagecolor="#ffffff" id="base"/>
  <metadata id="metadata5">
    <rdf:RDF>
      <cc:Work rdf:about="">
        <dc:format>image/svg+xml</dc:format>
        <dc:type rdf:resource="http://purl.org/dc/dcmitype/StillImage"/>
        <dc:title>Maske Symbol</dc:title>
        <dc:date>17.09.2020</dc:date>
        <dc:creator>
          <cc:Agent>
            <dc:title>Perudoor</dc:title>
          </cc:Agent>
        </dc:creator>
        <dc:publisher>
          <cc:Agent>
            <dc:title>Openclipart</dc:title>
          </cc:Agent>
        </dc:publisher>
        <dc:source>Openclipart</dc:source>
        <dc:subject>
          <rdf:Bag>
            <rdf:li>Maske</rdf:li>
            <rdf:li>Symbol</rdf:li>
            <rdf:li>Button</rdf:li>
            <rdf:li>Knopf</rdf:li>
            <rdf:li>Aufkleber</rdf:li>
            <rdf:li>mask</rdf:li>
            <rdf:li>COVID</rdf:li>
          </rdf:Bag>
        </dc:subject>
      </cc:Work>
    </rdf:RDF>
  </metadata>
  <g transform="translate(-69.65271,-108.92528)" id="layer1" inkscape:groupmode="layer" inkscape:label="Ebene 1">
    <g style="fill:#0000ff" transform="translate(0.52916667,11.1125)" id="g873">
      <path id="path889" d="M 96.161325,164.99761 C 83.164326,162.45937 71.86937,150.49362 69.569151,136.82613 65.867953,114.83429 85.800632,94.759661 107.92317,98.198976 c 15.07806,2.344134 26.40334,13.821734 28.61568,29.000544 3.33148,22.85728 -17.41863,42.28181 -40.377525,37.79809 z m 16.196595,-14.64216 c 1.95082,-0.58711 5.27432,-2.17592 7.38556,-3.5307 7.02016,-4.50483 14.64149,-15.86867 12.24788,-18.26228 -0.59023,-0.59023 -1.37019,0.33737 -2.76785,3.29177 -1.07032,2.26247 -2.80514,4.92068 -3.85516,5.90711 l -1.90912,1.79353 v -7.37026 c 0,-6.68598 0.1624,-7.53266 1.7492,-9.11946 0.96207,-0.96206 2.24165,-1.92757 2.84354,-2.14557 0.84899,-0.30751 0.89265,-0.61079 0.19475,-1.35282 -0.71957,-0.76506 -1.44893,-0.6323 -3.64515,0.6635 -1.51007,0.89096 -3.1526,1.62693 -3.65008,1.6355 -0.49747,0.009 -4.71159,-1.07447 -9.3647,-2.40675 l -8.46021,-2.42232 -8.785297,2.54933 -8.785303,2.54933 -3.104382,-1.74476 c -2.381117,-1.33826 -3.309828,-1.53625 -3.986198,-0.84981 -0.672076,0.68209 -0.521105,1.14719 0.634734,1.95546 3.35571,2.3466 3.412823,2.5226 3.384969,10.43099 l -0.02727,7.74242 -1.937304,-2.27482 c -1.065517,-1.25116 -2.598468,-3.7109 -3.406558,-5.46609 -1.731224,-3.76026 -2.764719,-4.6 -3.453216,-2.80581 -0.700296,1.82494 2.400801,7.34971 6.870656,12.24045 3.714349,4.06409 8.689011,7.15162 14.492501,8.99478 4.105376,1.30386 12.997228,1.30246 17.334008,-0.003 z M 96.540462,139.53398 c -5.88941,-1.31608 -9.478439,-2.69139 -9.478439,-3.63212 0,-1.91676 1.305426,-1.97024 8.479497,-0.34742 7.84,1.77345 14.37435,1.6297 19.29046,-0.42438 3.12775,-1.30686 4.83587,-1.06174 4.83587,0.69396 0,1.86645 -9.07027,4.23915 -15.81408,4.13682 -3.18822,-0.0484 -6.479205,-0.24046 -7.313308,-0.42686 z m 3.198027,-10.14731 c -4.03902,-0.98369 -7.36854,-2.83583 -7.36854,-4.09896 0,-1.83455 1.142778,-1.91728 5.198223,-0.37634 4.969968,1.88844 8.116928,1.88177 11.857218,-0.0251 3.01945,-1.5394 4.57878,-1.17592 3.78865,0.88314 -1.04846,2.73223 -8.68868,4.78313 -13.475551,3.6173 z" style="fill:#0000ff;fill-opacity:1;stroke-width:0.758275"/>
      <path id="path887" d="m 97.060631,164.98249 c -8.235539,-1.37014 -16.986623,-7.18654 -22.112378,-14.69697 -7.126077,-10.44139 -7.370402,-25.74781 -0.582265,-36.4777 7.097685,-11.21919 19.960348,-17.321825 32.872882,-15.596387 15.12031,2.020457 26.73751,13.429727 29.1914,28.668917 2.7858,17.30047 -8.96667,34.13832 -26.40738,37.83401 -5.71157,1.21028 -7.12363,1.23949 -12.962259,0.26813 z m 17.111309,-15.22103 c 7.13189,-2.65356 14.97755,-10.306 18.01194,-17.56833 1.38883,-3.32394 1.38886,-3.25799 -0.002,-3.79162 -0.78281,-0.30039 -1.63654,0.55626 -2.75299,2.76241 -2.37288,4.68888 -4.59058,7.61414 -5.12359,6.75824 -0.25719,-0.41261 -0.29681,-3.93864 -0.0883,-7.83561 0.36514,-6.8236 0.45619,-7.12221 2.4644,-8.08139 1.14689,-0.5478 2.08526,-1.3293 2.08526,-1.73669 0,-1.53315 -2.30093,-1.53605 -4.45023,-0.006 -2.84522,2.02598 -2.97105,2.01881 -11.9188,-0.67883 -4.13415,-1.24641 -8.3697,-2.26627 -9.41233,-2.26637 -1.04263,-1.1e-4 -5.137313,1.01587 -9.099301,2.25771 -8.571471,2.68664 -8.704234,2.69566 -11.167215,0.75828 -2.191355,-1.72372 -4.756562,-2.0051 -4.756562,-0.52174 0,0.54715 1.023671,1.75165 2.274825,2.67666 2.249045,1.66279 2.274825,1.76324 2.274825,8.86277 0,3.9495 -0.305652,7.18091 -0.679228,7.18091 -0.783182,0 -5.386973,-6.94375 -5.386973,-8.125 0,-0.43373 -0.507797,-1.21004 -1.12844,-1.72513 -1.671733,-1.38742 -2.325867,0.93641 -1.098011,3.90071 2.984334,7.20482 11.265836,14.67689 19.087053,17.22148 8.208087,2.67047 13.602507,2.65939 20.865167,-0.0428 z M 93.93177,138.86929 c -5.246224,-1.13758 -7.760232,-2.78296 -6.372499,-4.1707 0.576335,-0.57633 2.214421,-0.44739 5.654565,0.44511 8.072284,2.09426 14.724914,2.24049 20.374544,0.44787 5.09761,-1.61746 7.51725,-1.16664 5.2887,0.98538 -3.30942,3.19577 -15.57916,4.3233 -24.94531,2.29234 z m 6.70562,-9.50872 c -5.788344,-0.8751 -9.684302,-3.56593 -7.837257,-5.41297 0.236602,-0.2366 2.27542,0.21836 4.530708,1.01103 5.259299,1.8485 8.758169,1.82312 12.509649,-0.0907 2.99568,-1.52829 3.00289,-1.52833 3.00289,-0.0175 0,3.12272 -6.20867,5.41685 -12.20599,4.51016 z" style="fill:#0000ff;fill-opacity:1;stroke-width:0.758275"/>
      <path id="path885" d="m 92.739186,163.70792 c -9.103103,-3.14778 -16.215653,-9.5109 -20.323262,-18.18185 -2.279056,-4.81097 -2.415091,-5.58931 -2.415091,-13.8183 0,-8.21726 0.138386,-9.01226 2.399577,-13.78514 4.089378,-8.63178 10.860658,-14.82193 19.741132,-18.04689 4.03344,-1.464752 5.808715,-1.662852 12.511538,-1.396143 6.92409,0.275514 8.39716,0.593498 12.97121,2.800033 5.969,2.87947 12.05453,8.65126 15.18408,14.40126 3.10285,5.70097 4.64919,14.86956 3.57996,21.22633 -2.10215,12.49758 -10.66498,22.60808 -22.63533,26.72648 -5.45353,1.87629 -15.697751,1.91247 -21.013814,0.0742 z m 23.636274,-14.95859 c 3.79203,-1.85016 6.62881,-3.96013 9.41311,-7.00137 4.46409,-4.87606 8.17687,-11.96969 6.92179,-13.22477 -1.16308,-1.16308 -2.0265,-0.30264 -4.24359,4.22892 -3.58969,7.33705 -4.24927,7.07468 -4.24927,-1.69029 v -7.65613 l 2.27483,-1.17635 c 1.25115,-0.647 2.27483,-1.51953 2.27483,-1.93896 0,-1.58477 -2.46685,-1.61652 -4.57368,-0.0589 -1.20417,0.89027 -2.55524,1.61868 -3.00238,1.61868 -0.44715,0 -4.2588,-1.02367 -8.47034,-2.27483 -4.21154,-1.25115 -8.49231,-2.27482 -9.5128,-2.27482 -1.0205,0 -5.542088,1.08034 -10.047977,2.40075 l -8.192524,2.40076 -2.088078,-1.64248 c -2.222437,-1.74817 -4.916659,-2.19165 -4.916659,-0.8093 0,0.45825 1.023671,1.78944 2.274825,2.95819 2.205209,2.05998 2.274825,2.33615 2.274825,9.02439 0,3.79467 -0.255917,6.89706 -0.568706,6.89421 -0.807403,-0.007 -3.69319,-4.40945 -5.091734,-7.76714 -1.268839,-3.04629 -2.430965,-3.61807 -3.212766,-1.58073 -0.715246,1.8639 3.289773,8.96911 7.481284,13.27238 3.847488,3.95007 10.921757,7.75602 16.639569,8.95207 5.896991,1.23353 12.608351,0.27658 18.615441,-2.65432 z m -21.477878,-9.8377 c -5.517672,-1.1996 -8.048815,-2.41467 -7.610454,-3.65339 0.380257,-1.07453 0.789768,-1.04844 8.273523,0.52704 7.775569,1.63691 13.373469,1.55168 18.593759,-0.2831 2.58301,-0.90786 4.58205,-1.23774 4.99544,-0.82435 1.22701,1.22701 -0.20362,2.26562 -5.28097,3.83385 -5.69745,1.75976 -12.09623,1.89466 -18.971298,0.39995 z m 2.401156,-10.39577 c -3.088215,-1.08246 -5.150835,-2.95555 -4.248379,-3.85801 0.449474,-0.44947 2.05979,-0.25845 4.323508,0.51288 4.496173,1.532 9.119243,1.56566 11.954383,0.087 2.79764,-1.45907 3.68542,-1.43128 3.38116,0.10582 -0.65114,3.28945 -9.7244,5.1454 -15.410672,3.15228 z" style="fill:#0000ff;fill-opacity:1;stroke-width:0.758275"/>
      <path id="path883" d="m 93.507362,164.04975 c -14.386441,-4.75662 -23.885667,-17.61399 -23.885667,-32.32966 0,-13.22174 7.476773,-24.89724 19.578961,-30.57392 9.499449,-4.455828 22.993014,-3.58326 31.853864,2.05984 3.73138,2.37637 8.89987,7.71229 11.08971,11.44898 6.0785,10.37217 5.77343,24.92843 -0.73879,35.25139 -2.75858,4.37281 -9.17895,9.80384 -14.60134,12.35135 -4.50104,2.11466 -5.98623,2.41858 -12.68089,2.59502 -4.779202,0.12595 -8.704166,-0.17094 -10.615848,-0.803 z m 17.349598,-13.01419 c 6.02258,-1.56868 10.28202,-4.22891 15.09515,-9.42766 4.25484,-4.59573 7.74455,-10.84961 7.05577,-12.64456 -0.77516,-2.02004 -2.36972,-1.01331 -4.04661,2.55487 -0.93099,1.98099 -2.37161,4.45486 -3.20138,5.49749 l -1.50866,1.89569 -0.0168,-7.36329 c -0.0172,-7.5026 0.0548,-7.71587 3.39538,-10.05185 1.22756,-0.85842 1.33321,-1.24635 0.55442,-2.03576 -0.7831,-0.7938 -1.55909,-0.65587 -4.17051,0.7413 l -3.20841,1.71656 -8.90849,-2.65159 -8.90848,-2.65158 -9.043318,2.71756 -9.043316,2.71757 -2.055182,-1.61661 c -3.962938,-3.11724 -7.096493,-1.62672 -3.223191,1.53317 2.488173,2.02988 2.512277,2.11224 2.779152,9.49608 l 0.269211,7.44844 -1.599294,-1.44731 c -0.879612,-0.79603 -2.491,-3.2699 -3.580864,-5.4975 -1.955488,-3.99687 -3.523334,-5.0739 -4.329171,-2.97392 -0.671142,1.74896 3.370248,8.76606 7.489245,13.00362 4.161071,4.28086 9.495575,7.34226 15.710355,9.01597 5.236243,1.41018 9.146333,1.41648 14.495033,0.0233 z M 95.273795,138.89909 c -5.41169,-1.07762 -8.211772,-2.24604 -8.211772,-3.42662 0,-1.02915 3.392814,-0.86536 8.720164,0.42098 6.164523,1.48849 13.556963,1.36647 18.391183,-0.30355 3.31784,-1.14618 4.12575,-1.20545 4.832,-0.35446 0.66964,0.80686 0.26148,1.26692 -1.94011,2.18681 -6.43425,2.6884 -13.35261,3.15727 -21.791465,1.47684 z m 3.118073,-10.18516 c -3.263078,-0.99015 -5.263644,-2.31211 -5.263644,-3.47817 0,-1.41231 0.878208,-1.39838 4.384437,0.0696 3.704399,1.5509 9.569889,1.56571 11.913549,0.0301 2.30505,-1.51032 3.41717,-1.53908 3.41717,-0.0884 0,2.9013 -9.11178,5.0872 -14.451512,3.46691 z" style="fill:#0000ff;fill-opacity:1;stroke-width:0.758275"/>
      <path id="path881" d="m 92.831419,163.48464 c -15.225206,-5.23642 -24.194612,-18.65273 -22.999253,-34.40195 1.305401,-17.19904 15.88819,-30.760666 33.043944,-30.730022 13.27561,0.02371 24.37911,6.921582 30.24417,18.788712 2.79778,5.66093 2.85049,5.92955 2.85049,14.52707 0,8.2276 -0.14262,9.05877 -2.34867,13.68828 -7.46312,15.66171 -25.13127,23.51366 -40.790681,18.12791 z m 23.103121,-14.09472 c 5.39722,-2.54755 10.42574,-7.06795 14.19848,-12.76375 2.87592,-4.34184 3.70996,-6.97036 2.57262,-8.1077 -1.26365,-1.26364 -2.99131,-0.15524 -3.52164,2.25935 -0.26644,1.21309 -1.47903,3.36879 -2.69465,4.79045 l -2.21021,2.58484 -0.0308,-6.76477 c -0.0315,-6.91459 0.93092,-9.53814 3.49895,-9.53814 0.56093,0 1.01989,-0.68245 1.01989,-1.51655 0,-2.01683 -2.5049,-1.99594 -5.37084,0.0448 l -2.19269,1.56134 -9.04349,-2.75162 -9.04348,-2.75162 -9.24457,2.764 -9.244567,2.76401 -1.675154,-1.57373 c -0.921334,-0.86555 -2.400776,-1.57372 -3.287649,-1.57372 -3.013704,0 -2.804099,2.02602 0.383258,3.70454 1.592552,0.83866 1.704997,1.38882 1.689258,8.26497 l -0.01686,7.3665 -1.483883,-1.89568 c -0.816136,-1.04263 -2.175192,-3.34589 -3.020124,-5.11836 -1.481991,-3.10887 -3.179538,-4.08712 -4.207123,-2.42445 -0.81773,1.32311 3.306802,8.79476 7.216223,13.07229 9.068744,9.92265 24.040981,13.11047 35.709071,7.60301 z m -16.360977,-9.83958 c -3.778778,-0.45055 -11.74248,-2.66201 -12.189218,-3.38484 -0.854754,-1.38303 2.040178,-1.52624 7.187255,-0.35556 6.86557,1.56154 14.44605,1.53311 19.54213,-0.0733 2.99141,-0.94296 4.28045,-1.05621 4.90565,-0.43101 1.07744,1.07743 -2.88872,2.82241 -8.97035,3.94666 -4.24368,0.78449 -5.98106,0.83392 -10.475467,0.29804 z m -1.181695,-10.83641 c -3.263078,-0.99015 -5.263644,-2.31211 -5.263644,-3.47817 0,-1.39792 -0.203852,-1.41613 5.64559,0.50411 5.100056,1.67423 6.280646,1.56229 12.742586,-1.20818 0.95859,-0.41098 1.32698,-0.22035 1.32698,0.68669 0,2.85761 -9.2113,5.08565 -14.451512,3.49555 z" style="fill:#0000ff;fill-opacity:1;stroke-width:0.758275"/>
      <path id="path879" d="m 99.573563,139.59379 c -4.031952,-0.55775 -11.758134,-2.73079 -12.189218,-3.42829 -0.854754,-1.38303 2.040178,-1.52624 7.187255,-0.35556 6.5244,1.48394 15.36042,1.5051 19.40919,0.0465 3.78332,-1.36299 4.92879,-1.39009 4.92879,-0.11661 0,2.11866 -13.06124,4.72198 -19.336017,3.85398 z m -2.121968,-11.38472 c -3.252921,-0.99974 -5.163458,-2.73844 -4.13699,-3.76491 0.205554,-0.20555 2.686587,0.38552 5.513408,1.3135 5.417587,1.77847 5.707107,1.75044 12.688387,-1.22864 0.95752,-0.40859 1.32698,-0.21666 1.32698,0.68936 0,1.63008 -5.62488,4.19244 -9.0993,4.1451 -1.45968,-0.0199 -4.2913,-0.53937 -6.292485,-1.15441 z" style="fill:#0000ff;fill-opacity:1;stroke-width:0.758275"/>
      <path id="path877" d="m 96.540462,138.9672 c -7.223263,-1.40568 -9.966653,-2.52487 -8.872085,-3.61944 0.632228,-0.63223 2.339703,-0.5267 6.590367,0.40732 6.976046,1.53287 15.625116,1.57731 19.722046,0.10134 3.78332,-1.36299 4.92879,-1.39009 4.92879,-0.11661 0,1.30973 -6.90372,3.45332 -12.57239,3.9037 -2.46884,0.19615 -6.877368,-0.10819 -9.796728,-0.67631 z m 0.911133,-10.75813 c -3.252921,-0.99974 -5.163458,-2.73844 -4.13699,-3.76491 0.205554,-0.20555 2.686587,0.38552 5.513408,1.3135 5.417587,1.77847 5.707107,1.75044 12.688387,-1.22864 0.95752,-0.40859 1.32698,-0.21666 1.32698,0.68936 0,1.63008 -5.62488,4.19244 -9.0993,4.1451 -1.45968,-0.0199 -4.2913,-0.53937 -6.292485,-1.15441 z" style="fill:#0000ff;fill-opacity:1;stroke-width:0.758275"/>
      <path id="path875" d="m 96.540462,138.9672 c -7.223263,-1.40568 -9.966653,-2.52487 -8.872085,-3.61944 0.632228,-0.63223 2.339703,-0.5267 6.590367,0.40732 6.976046,1.53287 15.625116,1.57731 19.722046,0.10134 3.78332,-1.36299 4.92879,-1.39009 4.92879,-0.11661 0,1.30973 -6.90372,3.45332 -12.57239,3.9037 -2.46884,0.19615 -6.877368,-0.10819 -9.796728,-0.67631 z m 0.911133,-10.75813 c -3.252921,-0.99974 -5.163458,-2.73844 -4.13699,-3.76491 0.205554,-0.20555 2.686587,0.38552 5.513408,1.3135 5.417587,1.77847 5.707107,1.75044 12.688387,-1.22864 0.92965,-0.3967 1.32698,-0.22165 1.32698,0.58465 0,1.56282 -5.93745,4.3316 -9.14914,4.26646 -1.43227,-0.0291 -4.24146,-0.55602 -6.242645,-1.17106 z" style="fill:#0000ff;fill-opacity:1;stroke-width:0.758275"/>
    </g>
  </g>
</svg>